[
	[ "B M V", "Německo" ],
	[ "Lancia", "Itálie" ],
	[ "Hyundai", "Jižní korea"],
	[ "Tata", "Indie" ],
	[ "Volvo", "Švédsko" ],
	[ "Ford Motor", "Spojené státy americké" ],
	[ "Tatra", "Czech" ],
	[ "Aston Martin", "Velká británie" ]
]