[
	[
		{
			"key": "gott_sound",
			"value": "gott.m4a",
			"type": "sound"
		},
		{
			"key": "gott_voice",
			"value": "Karel Gott",
			"type": "voice"
		}
	],
	[
		{
			"key": "nohavica_sound",
			"value": "nohavica.m4a",
			"type": "sound"
		},
		{
			"key": "nohavice_voice",
			"value": "Jaromír Nohavica",
			"type": "voice"
		}
	],
	[
		{
			"key": "matuska_sound",
			"value": "matuska.m4a",
			"type": "sound"
		},
		{
			"key": "matuska_voice",
			"value": "Waldemar Matuška",
			"type": "voice"
		}
	],
	[
		{
			"key": "bila_sound",
			"value": "bila.m4a",
			"type": "sound"
		},
		{
			"key": "bila_voice",
			"value": "Lucie Bílá",
			"type": "voice"
		}
	],
	[
		{
			"key": "zagorova_sound",
			"value": "zagorova.m4a",
			"type": "sound"
		},
		{
			"key": "zagorova_voice",
			"value": "Hana Zagorová",
			"type": "voice"
		}
	],
	[
		{
			"key": "janda_sound",
			"value": "janda.m4a",
			"type": "sound"
		},
		{
			"key": "janda_voice",
			"value": "Petr Janda",
			"type": "voice"
		}
	]
]